{
  "algorithm": "genfit",
  "pid": 13,
  "energy": 160.0,
  "smearing": 0.15,
  "planes": 3,
  "gdml": "data/muon-pilot-run-2021-updated-set-up.gdml",
  "input": "data/hits.root",
  "output": "out.root",
  "clonetree": 1
}

